[
    {
        "_id": "b-10",
        "_parentId": "a-50",
        "_type": "block",
        "_classes": "",
        "title": "b-50",
        "displayTitle": "",
        "body": "",
        "_trackingId": 1
    },
    {
        "_id": "b-20",
        "_parentId": "a-50",
        "_type": "block",
        "_classes": "",
        "title": "b-20",
        "displayTitle": "",
        "body": "",
        "_trackingId": 2
    },
    {
        "_id": "b-30",
        "_parentId": "a-50",
        "_type": "block",
        "_classes": "",
        "title": "b-30",
        "displayTitle": "",
        "body": "",
        "_trackingId": 3
    },
    {
        "_id": "b-40",
        "_parentId": "a-50",
        "_type": "block",
        "_classes": "",
        "title": "b-40",
        "displayTitle": "",
        "body": "",
        "_trackingId": 4
    },
    {
        "_id": "b-65",
        "_parentId": "a-65",
        "_type": "block",
        "_classes": "",
        "title": "b-65",
        "displayTitle": "",
        "body": "",
        "_trackingId": 5
    },
    {
        "_id": "b-66",
        "_parentId": "a-65",
        "_type": "block",
        "_classes": "",
        "title": "b-66",
        "displayTitle": "",
        "body": "",
        "_trackingId": 6
    },
    {
        "_id": "b-67",
        "_parentId": "a-65",
        "_type": "block",
        "_classes": "",
        "title": "b-67",
        "displayTitle": "",
        "body": "",
        "_trackingId": 7
    },
    {
        "_id": "b-68",
        "_parentId": "a-70",
        "_type": "block",
        "_classes": "",
        "title": "b-68",
        "displayTitle": "",
        "body": "",
        "_trackingId": 8
    },
    {
        "_id": "b-70",
        "_parentId": "a-70",
        "_type": "block",
        "_classes": "",
        "title": "b-70",
        "displayTitle": "",
        "body": "",
        "_trackingId": 9
    },
    {
        "_id": "b-80",
        "_parentId": "a-70",
        "_type": "block",
        "_classes": "",
        "title": "b-80",
        "displayTitle": "",
        "body": "",
        "_trackingId": 10
    },
    {
        "_id": "b-90",
        "_parentId": "a-70",
        "_type": "block",
        "_classes": "",
        "title": "b-90",
        "displayTitle": "",
        "body": "",
        "_trackingId": 11
    },
    {
        "_id": "b-100",
        "_parentId": "a-100",
        "_type": "block",
        "_classes": "",
        "title": "b-100",
        "displayTitle": "",
        "body": "",
        "_trackingId": 12
    },
    {
        "_id": "b-120",
        "_parentId": "a-100",
        "_type": "block",
        "_classes": "",
        "title": "b-120",
        "displayTitle": "",
        "body": "",
        "_trackingId": 13
    },
    {
        "_id": "b-130",
        "_parentId": "a-100",
        "_type": "block",
        "_classes": "",
        "title": "b-130",
        "displayTitle": "",
        "body": "",
        "_trackingId": 14
    },
    {
        "_id": "b-140",
        "_parentId": "a-100",
        "_type": "block",
        "_classes": "",
        "title": "b-140",
        "displayTitle": "",
        "body": "",
        "_trackingId": 15
    },
    {
        "_id": "b-190",
        "_parentId": "a-100",
        "_type": "block",
        "_classes": "",
        "title": "b-190",
        "displayTitle": "",
        "body": "",
        "_trackingId": 16
    },
    {
        "_id": "b-200",
        "_parentId": "a-150",
        "_type": "block",
        "_classes": "",
        "title": "b-200",
        "displayTitle": "",
        "body": "",
        "_trackingId": 17
    },
    {
        "_id": "b-210",
        "_parentId": "a-150",
        "_type": "block",
        "_classes": "",
        "title": "b-210",
        "displayTitle": "",
        "body": "",
        "_trackingId": 18
    },
    {
        "_id": "b-220",
        "_parentId": "a-150",
        "_type": "block",
        "_classes": "",
        "title": "b-220",
        "displayTitle": "",
        "body": "",
        "_trackingId": 19
    },
    {
        "_id": "b-230",
        "_parentId": "a-150",
        "_type": "block",
        "_classes": "",
        "title": "b-230",
        "displayTitle": "",
        "body": "",
        "_trackingId": 20
    },
    {
        "_id": "b-235",
        "_parentId": "a-150",
        "_type": "block",
        "_classes": "",
        "title": "b-235",
        "displayTitle": "",
        "body": "",
        "_trackingId": 21
    },
    {
        "_id": "b-240",
        "_parentId": "a-150",
        "_type": "block",
        "_classes": "",
        "title": "b-240",
        "displayTitle": "",
        "body": "",
        "_trackingId": 22
    },
    {
        "_id": "b-250",
        "_parentId": "a-150",
        "_type": "block",
        "_classes": "",
        "title": "b-250",
        "displayTitle": "",
        "body": "",
        "_trackingId": 23
    },
    {
        "_id": "b-260",
        "_parentId": "a-150",
        "_type": "block",
        "_classes": "",
        "title": "b-260",
        "displayTitle": "",
        "body": "",
        "_trackingId": 24
    },
    {
        "_id": "b-290",
        "_parentId": "a-150",
        "_type": "block",
        "_classes": "",
        "title": "b-290",
        "displayTitle": "",
        "body": "",
        "_trackingId": 25
    },
    {
        "_id": "b-300",
        "_parentId": "a-200",
        "_type": "block",
        "_classes": "",
        "title": "b-300",
        "displayTitle": "",
        "body": "",
        "_trackingId": 26
    },
    {
        "_id": "b-310",
        "_parentId": "a-200",
        "_type": "block",
        "_classes": "",
        "title": "b-310",
        "displayTitle": "",
        "body": "",
        "_trackingId": 27
    },
    {
        "_id": "b-312",
        "_parentId": "a-200",
        "_type": "block",
        "_classes": "",
        "title": "b-312",
        "displayTitle": "",
        "body": "",
        "_trackingId": 28
    },
    {
        "_id": "b-315",
        "_parentId": "a-200",
        "_type": "block",
        "_classes": "",
        "title": "b-315",
        "displayTitle": "",
        "body": "",
        "_trackingId": 29
    },
    {
        "_id": "b-320",
        "_parentId": "a-200",
        "_type": "block",
        "_classes": "",
        "title": "b-320",
        "displayTitle": "",
        "body": "",
        "_trackingId": 30
    },
    {
        "_id": "b-323",
        "_parentId": "a-200",
        "_type": "block",
        "_classes": "",
        "title": "b-323",
        "displayTitle": "",
        "body": "",
        "_trackingId": 31
    },
    {
        "_id": "b-325",
        "_parentId": "a-200",
        "_type": "block",
        "_classes": "",
        "title": "b-325",
        "displayTitle": "",
        "body": "",
        "_trackingId": 32
    },
    {
        "_id": "b-330",
        "_parentId": "a-200",
        "_type": "block",
        "_classes": "",
        "title": "b-330",
        "displayTitle": "",
        "body": "",
        "_trackingId": 33
    },
    {
        "_id": "b-335",
        "_parentId": "a-200",
        "_type": "block",
        "_classes": "",
        "title": "b-335",
        "displayTitle": "",
        "body": "",
        "_trackingId": 34
    },
    {
        "_id": "b-340",
        "_parentId": "a-200",
        "_type": "block",
        "_classes": "",
        "title": "b-340",
        "displayTitle": "",
        "body": "",
        "_trackingId": 35
    },
    {
        "_id": "b-350",
        "_parentId": "a-200",
        "_type": "block",
        "_classes": "",
        "title": "b-350",
        "displayTitle": "",
        "body": "",
        "_trackingId": 36
    },
    {
        "_id": "b-351",
        "_parentId": "a-200",
        "_type": "block",
        "_classes": "",
        "title": "b-351",
        "displayTitle": "",
        "body": "",
        "_trackingId": 37
    },
    {
        "_id": "b-352",
        "_parentId": "a-200",
        "_type": "block",
        "_classes": "",
        "title": "b-352",
        "displayTitle": "",
        "body": "",
        "_trackingId": 38
    },
    {
        "_id": "b-355",
        "_parentId": "a-200",
        "_type": "block",
        "_classes": "",
        "title": "b-355",
        "displayTitle": "",
        "body": "",
        "_trackingId": 39
    },
    {
        "_id": "b-360",
        "_parentId": "a-200",
        "_type": "block",
        "_classes": "",
        "title": "b-360",
        "displayTitle": "",
        "body": "",
        "_trackingId": 40
    },
    {
        "_id": "b-365",
        "_parentId": "a-200",
        "_type": "block",
        "_classes": "",
        "title": "b-365",
        "displayTitle": "",
        "body": "",
        "_trackingId": 41
    },
    {
        "_id": "b-370",
        "_parentId": "a-200",
        "_type": "block",
        "_classes": "",
        "title": "b-370",
        "displayTitle": "",
        "body": "",
        "_trackingId": 42
    },
    {
        "_id": "b-375",
        "_parentId": "a-200",
        "_type": "block",
        "_classes": "",
        "title": "b-375",
        "displayTitle": "",
        "body": "",
        "_trackingId": 43
    },
    {
        "_id": "b-380",
        "_parentId": "a-200",
        "_type": "block",
        "_classes": "",
        "title": "b-380",
        "displayTitle": "",
        "body": "",
        "_trackingId": 44
    },
    {
        "_id": "b-390",
        "_parentId": "a-200",
        "_type": "block",
        "_classes": "",
        "title": "b-390",
        "displayTitle": "",
        "body": "",
        "_trackingId": 45
    },
    {
        "_id": "b-400",
        "_parentId": "a-250",
        "_type": "block",
        "_classes": "",
        "title": "b-400",
        "displayTitle": "",
        "body": "",
        "_trackingId": 46
    },
    {
        "_id": "b-490",
        "_parentId": "a-250",
        "_type": "block",
        "_classes": "",
        "title": "b-490",
        "displayTitle": "",
        "body": "",
        "_trackingId": 47
    }
]